<svg width="64" height="64" viewBox="0 0 64 64" fill="none" xmlns="http://www.w3.org/2000/svg">
<path d="M50.6663 5.33325H13.333C11.2113 5.33325 9.17645 6.17611 7.67615 7.6764C6.17586 9.17669 5.33301 11.2115 5.33301 13.3333V50.6666C5.33301 52.7883 6.17586 54.8232 7.67615 56.3234C9.17645 57.8237 11.2113 58.6666 13.333 58.6666H50.6663C52.7881 58.6666 54.8229 57.8237 56.3232 56.3234C57.8235 54.8232 58.6663 52.7883 58.6663 50.6666V13.3333C58.6663 11.2115 57.8235 9.17669 56.3232 7.6764C54.8229 6.17611 52.7881 5.33325 50.6663 5.33325ZM26.6663 10.6666H37.333V19.0133L33.4663 16.3466C33.0309 16.0598 32.521 15.907 31.9997 15.907C31.4783 15.907 30.9684 16.0598 30.533 16.3466L26.6663 19.0133V10.6666ZM53.333 50.6666C53.333 51.3738 53.0521 52.0521 52.552 52.5522C52.0519 53.0523 51.3736 53.3333 50.6663 53.3333H13.333C12.6258 53.3333 11.9475 53.0523 11.4474 52.5522C10.9473 52.0521 10.6663 51.3738 10.6663 50.6666V13.3333C10.6663 12.626 10.9473 11.9477 11.4474 11.4476C11.9475 10.9475 12.6258 10.6666 13.333 10.6666H21.333V23.9999C21.3343 24.4823 21.4664 24.9554 21.7153 25.3686C21.9642 25.7819 22.3205 26.1199 22.7463 26.3466C23.1633 26.5607 23.6294 26.6611 24.0976 26.6377C24.5657 26.6143 25.0195 26.4679 25.413 26.2133L31.9997 21.8666L38.533 26.2133C38.9341 26.4774 39.399 26.6283 39.8788 26.6501C40.3585 26.6719 40.8352 26.5637 41.2585 26.337C41.6819 26.1103 42.0362 25.7735 42.284 25.3621C42.5318 24.9508 42.6639 24.4801 42.6663 23.9999V10.6666H50.6663C51.3736 10.6666 52.0519 10.9475 52.552 11.4476C53.0521 11.9477 53.333 12.626 53.333 13.3333V50.6666Z" fill="#DF1E36"/>
</svg>
